module zuful1/currency-converter

go 1.14

require (
	github.com/gin-contrib/cors v1.3.1
	github.com/gin-gonic/gin v1.7.4
	github.com/joho/godotenv v1.4.0
	github.com/lib/pq v1.10.3
	github.com/mattn/go-sqlite3 v1.14.9
)
